…
## Setup T cell with MB

Get Visits 1, 7, 19 from timeline, and their DOL

Merge onto MB timelines

``` r
closest_1_7_19 = timeline %>% filter(`Sequence Num` %in% c(1, 7, 19)) %>% select(`Sequence Num`, `Subject`, DOL_t = DOL) %>%  left_join(all_mb %>% select(`Subject`, DOL_m = DOL), by = 'Subject') 

closest_visit = closest_1_7_19 %>% mutate(diff = DOL_m -DOL_t)%>% group_by(`Subject`, `Sequence Num`) %>% arrange(abs(diff)) %>% mutate(rank_diff = seq_along(diff)) %>% filter(rank_diff == 1, abs(diff) < 28)

closest_visit %>% group_by(`Subject`) %>% summarize(n())
```

    ## # A tibble: 215 x 2
    ##    Subject `n()`
    ##    <chr>   <int>
    ##  1 C01D8       3
    ##  2 C0427       2
    ##  3 C04D3       2
    ##  4 C04F0       3
    ##  5 C0522       3
    ##  6 C054B       3
    ##  7 C0796       3
    ##  8 C08F3       2
    ##  9 C09B7       3
    ## 10 C09C2       3
    ## # … with 205 more rows

``` r
all_mb_closest = inner_join(all_mb[!duplicated(all_mb[c('Subject', 'DOL')]),], 
                            closest_visit %>% select(`Sequence Num.T` = `Sequence Num`, `Subject`, DOL = DOL_m))

mb_tcell_closest = inner_join(all_feats %>% rename(`Sequence Num.T` = `Sequence Num`), select(all_mb_closest, -`Sequence Num`, -ispreterm, -cga), by = c('Subject', 'Sequence Num.T'), suffix = c('.T', '.B'))

mb_tcell_closest %>% group_by(`Subject`) %>% summarize(n())
```

    ## # A tibble: 147 x 2
    ##    Subject `n()`
    ##    <chr>   <int>
    ##  1 C01D8       3
    ##  2 C0427       1
    ##  3 C04D3       2
    ##  4 C0522       3
    ##  5 C08F3       1
    ##  6 C09B7       3
    ##  7 C09C2       3
    ##  8 C0C1C       3
    ##  9 C0E4F       3
    ## 10 C1114       2
    ## # … with 137 more rows
…
